<svg xmlns="http://www.w3.org/2000/svg" viewBox="0 0 347.06 100">
  <title>logo</title>
  <g id="Capa_2" data-name="Capa 2">
    <g id="Header_y_Footer" data-name="Header y Footer">
      <g>
        <rect width="347.06" height="100" fill="#fff"/>
        <g>
          <g>
            <path d="M166.12,83.94l.59,0a1.21,1.21,0,0,0,.19.58,1,1,0,0,0,.48.37,1.81,1.81,0,0,0,.72.14,1.73,1.73,0,0,0,.63-.11.92.92,0,0,0,.41-.29.66.66,0,0,0,.13-.4.59.59,0,0,0-.13-.39.86.86,0,0,0-.42-.28,7.61,7.61,0,0,0-.84-.23A3.49,3.49,0,0,1,167,83a1.22,1.22,0,0,1-.51-.43,1.11,1.11,0,0,1-.16-.59,1.21,1.21,0,0,1,.79-1.14,2.51,2.51,0,0,1,1.79,0,1.28,1.28,0,0,1,.62.49,1.47,1.47,0,0,1,.23.75l-.6,0a1,1,0,0,0-.32-.67,1.25,1.25,0,0,0-.83-.23,1.3,1.3,0,0,0-.82.21.61.61,0,0,0-.26.5.51.51,0,0,0,.18.41,2.42,2.42,0,0,0,.94.34,7.66,7.66,0,0,1,1,.3,1.52,1.52,0,0,1,.61.48,1.19,1.19,0,0,1,.19.67,1.34,1.34,0,0,1-.21.72,1.37,1.37,0,0,1-.62.51,2.06,2.06,0,0,1-.91.19,2.56,2.56,0,0,1-1.07-.19,1.45,1.45,0,0,1-.68-.56A1.47,1.47,0,0,1,166.12,83.94Z"/>
            <path d="M170.74,85.46V80.74h3.41v.55h-2.78v1.45H174v.55h-2.61V84.9h2.89v.56Z"/>
            <path d="M178.5,83.8l.62.16a2.07,2.07,0,0,1-.71,1.17,1.93,1.93,0,0,1-1.24.41,2.25,2.25,0,0,1-1.25-.31,2,2,0,0,1-.72-.9,3.16,3.16,0,0,1-.25-1.27,2.72,2.72,0,0,1,.28-1.28,1.91,1.91,0,0,1,.8-.84,2.36,2.36,0,0,1,1.15-.28,1.93,1.93,0,0,1,1.19.36,1.91,1.91,0,0,1,.67,1l-.61.15a1.4,1.4,0,0,0-.48-.75,1.26,1.26,0,0,0-.79-.24,1.57,1.57,0,0,0-.91.26,1.44,1.44,0,0,0-.51.7,2.85,2.85,0,0,0-.15.91,2.82,2.82,0,0,0,.18,1,1.3,1.3,0,0,0,.54.67,1.53,1.53,0,0,0,.8.22,1.35,1.35,0,0,0,.89-.3A1.53,1.53,0,0,0,178.5,83.8Z"/>
            <path d="M179.9,85.46V80.74H182a3,3,0,0,1,1,.12,1.1,1.1,0,0,1,.53.45,1.39,1.39,0,0,1,.19.72,1.16,1.16,0,0,1-.32.84,1.64,1.64,0,0,1-1,.44,1.39,1.39,0,0,1,.38.24,3,3,0,0,1,.52.62l.82,1.29h-.78l-.63-1a6.73,6.73,0,0,0-.45-.65,1.37,1.37,0,0,0-.32-.32,1.17,1.17,0,0,0-.28-.13l-.35,0h-.72v2.1Zm.63-2.64h1.34a2,2,0,0,0,.67-.09.75.75,0,0,0,.37-.28A.79.79,0,0,0,183,82a.73.73,0,0,0-.24-.56,1.16,1.16,0,0,0-.77-.21h-1.49Z"/>
            <path d="M184.67,85.46V80.74h3.41v.55h-2.79v1.45h2.61v.55h-2.61V84.9h2.9v.56Z"/>
            <path d="M190.25,85.46V81.29H188.7v-.55h3.74v.55h-1.56v4.17Z"/>
            <path d="M192.56,85.46l1.82-4.72h.67L197,85.46h-.71L195.72,84h-2l-.52,1.43Zm1.37-1.94h1.6l-.5-1.31c-.15-.4-.26-.72-.33-1a5.47,5.47,0,0,1-.26.9Z"/>
            <path d="M197.49,85.46V80.74h2.09a2.87,2.87,0,0,1,1,.12,1.1,1.1,0,0,1,.53.45,1.39,1.39,0,0,1,.2.72,1.17,1.17,0,0,1-.33.84,1.63,1.63,0,0,1-1,.44,1.48,1.48,0,0,1,.37.24,2.71,2.71,0,0,1,.52.62l.82,1.29h-.78l-.63-1a6.73,6.73,0,0,0-.45-.65,1.37,1.37,0,0,0-.32-.32,1,1,0,0,0-.28-.13l-.35,0h-.72v2.1Zm.63-2.64h1.34a2,2,0,0,0,.67-.09.75.75,0,0,0,.37-.28.79.79,0,0,0,.12-.42.73.73,0,0,0-.24-.56,1.16,1.16,0,0,0-.77-.21h-1.49Z"/>
            <path d="M202.19,80.45l.43-.9h.76l-.71.9Zm.16,5V80.74H203v4.72Z"/>
            <path d="M203.56,85.46l1.81-4.72h.68L208,85.46h-.71L206.72,84h-2l-.52,1.43Zm1.36-1.94h1.6L206,82.21c-.15-.4-.26-.72-.34-1a5.44,5.44,0,0,1-.25.9Z"/>
            <path d="M210.31,85.46V80.74h1.63a4.53,4.53,0,0,1,.84.06,1.72,1.72,0,0,1,.69.34A2,2,0,0,1,214,82a3.25,3.25,0,0,1,.18,1.12,3.5,3.5,0,0,1-.12,1,2.53,2.53,0,0,1-.32.68,1.94,1.94,0,0,1-.43.43,1.85,1.85,0,0,1-.57.24,3.41,3.41,0,0,1-.76.08Zm.62-.56h1a2.44,2.44,0,0,0,.74-.09,1.08,1.08,0,0,0,.42-.24,1.45,1.45,0,0,0,.34-.6,2.69,2.69,0,0,0,.13-.91,2.25,2.25,0,0,0-.24-1.14,1.26,1.26,0,0,0-.6-.53,2.46,2.46,0,0,0-.8-.1h-1Z"/>
            <path d="M215.09,85.46V80.74h3.41v.55h-2.79v1.45h2.61v.55h-2.61V84.9h2.9v.56Z"/>
            <path d="M221.09,83.94l.59,0a1.21,1.21,0,0,0,.2.58,1.05,1.05,0,0,0,.47.37,1.9,1.9,0,0,0,.73.14,1.77,1.77,0,0,0,.63-.11.92.92,0,0,0,.41-.29.73.73,0,0,0,.13-.4.59.59,0,0,0-.13-.39,1,1,0,0,0-.43-.28,6.44,6.44,0,0,0-.84-.23,3.79,3.79,0,0,1-.91-.3,1.26,1.26,0,0,1-.5-.43,1.12,1.12,0,0,1-.17-.59,1.18,1.18,0,0,1,.21-.67,1.17,1.17,0,0,1,.59-.47,2.2,2.2,0,0,1,.86-.16,2.27,2.27,0,0,1,.93.17,1.32,1.32,0,0,1,.62.49,1.47,1.47,0,0,1,.23.75l-.6,0a.92.92,0,0,0-.33-.67,1.22,1.22,0,0,0-.82-.23,1.33,1.33,0,0,0-.83.21.6.6,0,0,0-.25.5.51.51,0,0,0,.18.41,2.35,2.35,0,0,0,.94.34,7.66,7.66,0,0,1,1.05.3,1.48,1.48,0,0,1,.6.48,1.13,1.13,0,0,1,.2.67,1.34,1.34,0,0,1-.21.72,1.49,1.49,0,0,1-.62.51,2.09,2.09,0,0,1-.91.19,2.64,2.64,0,0,1-1.08-.19,1.5,1.5,0,0,1-.68-.56A1.64,1.64,0,0,1,221.09,83.94Z"/>
            <path d="M225.19,85.46,227,80.74h.67l1.93,4.72h-.71L228.34,84h-2l-.52,1.43Zm1.36-1.94h1.6l-.49-1.31c-.15-.4-.27-.72-.34-1a5.44,5.44,0,0,1-.25.9Z"/>
            <path d="M230.08,85.46V80.74h.62V84.9H233v.56Z"/>
            <path d="M236.87,80.74h.63v2.72a3.18,3.18,0,0,1-.17,1.14,1.4,1.4,0,0,1-.58.68,2.11,2.11,0,0,1-1.1.26,2.35,2.35,0,0,1-1.09-.23,1.29,1.29,0,0,1-.6-.66,3.17,3.17,0,0,1-.18-1.19V80.74h.63v2.72a2.63,2.63,0,0,0,.11.91,1,1,0,0,0,.39.45,1.45,1.45,0,0,0,.68.16,1.32,1.32,0,0,0,1-.32,1.84,1.84,0,0,0,.29-1.2Z"/>
            <path d="M238.54,85.46V80.74h1.62a4.38,4.38,0,0,1,.84.06,1.83,1.83,0,0,1,.7.34,2,2,0,0,1,.55.81,3,3,0,0,1,.19,1.12,3.14,3.14,0,0,1-.13,1,2.26,2.26,0,0,1-.32.68,1.6,1.6,0,0,1-.43.43,1.69,1.69,0,0,1-.56.24,3.48,3.48,0,0,1-.76.08Zm.62-.56h1a2.37,2.37,0,0,0,.73-.09,1,1,0,0,0,.42-.24,1.47,1.47,0,0,0,.35-.6,3,3,0,0,0,.12-.91,2.25,2.25,0,0,0-.24-1.14,1.24,1.24,0,0,0-.59-.53,2.58,2.58,0,0,0-.81-.1h-1Z"/>
          </g>
          <g>
            <rect x="193.48" y="15.38" width="1.15" height="57.59" fill="#264467"/>
            <g>
              <path d="M209.66,41.87c.72,0,1.15-.25,1.15-.79v0c0-.5-.37-.8-1.2-.8h-1.86v1.61Zm-.43-2.95c.72,0,1.17-.23,1.17-.78v0c0-.48-.38-.75-1.06-.75h-1.59v1.55Zm-3.06-2.16A.81.81,0,0,1,207,36h2.6a2.65,2.65,0,0,1,1.92.65,1.72,1.72,0,0,1,.5,1.25v0a1.7,1.7,0,0,1-1,1.58,1.8,1.8,0,0,1,1.37,1.81v0c0,1.34-1.09,2-2.75,2H207a.81.81,0,0,1-.81-.81Z" fill="#61abeb"/>
              <path d="M221.15,38.5v0a2.93,2.93,0,0,0-2.92-3,2.88,2.88,0,0,0-2.89,3v0a2.93,2.93,0,0,0,2.92,3,2.89,2.89,0,0,0,2.89-3m-8,0v0a5.13,5.13,0,0,1,10.25,0v0a5,5,0,0,1-5.14,5,4.94,4.94,0,0,1-5.11-5" fill="#61abeb"/>
              <path d="M224.4,37.25v0a6.24,6.24,0,0,1,6.37-6.29,6.75,6.75,0,0,1,4.15,1.18,1.36,1.36,0,0,1,.56,1.08,1.33,1.33,0,0,1-2.14,1,4.26,4.26,0,0,0-2.66-.83,3.66,3.66,0,0,0-3.49,3.79v0a3.65,3.65,0,0,0,3.69,3.86,4.28,4.28,0,0,0,2.51-.73V38.6h-1.8a1.15,1.15,0,0,1-1.17-1.15,1.17,1.17,0,0,1,1.17-1.16h3A1.33,1.33,0,0,1,236,37.63v2.95a1.79,1.79,0,0,1-.94,1.7,8.06,8.06,0,0,1-4.25,1.22,6.08,6.08,0,0,1-6.39-6.25" fill="#61abeb"/>
              <path d="M249.14,35.89v0a4.52,4.52,0,0,0-4.51-4.68,4.45,4.45,0,0,0-4.46,4.63v.05a4.52,4.52,0,0,0,4.5,4.68,4.46,4.46,0,0,0,4.47-4.64m-12.4,0v0a7.7,7.7,0,0,1,7.93-7.7,7.62,7.62,0,0,1,7.89,7.65v.05a7.91,7.91,0,0,1-15.82,0" fill="#61abeb"/>
              <path d="M256.47,29.09H252.7a1.81,1.81,0,0,1,0-3.62h11.45a1.81,1.81,0,1,1,0,3.62h-3.76V41.48a2,2,0,1,1-3.92,0Z" fill="#61abeb"/>
              <path d="M272.66,19.78A1.67,1.67,0,0,1,273,19l1.64-2.57a2,2,0,0,1,1.71-1c1.11,0,2.55.69,2.55,1.38a1.48,1.48,0,0,1-.6,1.08l-1.86,1.73a3.35,3.35,0,0,1-2.61,1c-.65,0-1.13-.3-1.13-.78m4.13,14.74-2.91-6.92L271,34.52Zm-13,5.81,7.31-16.51A2.86,2.86,0,0,1,273.82,22h.27a2.82,2.82,0,0,1,2.67,1.82l7.31,16.51a2.15,2.15,0,0,1-1.95,3.14,2.35,2.35,0,0,1-2.22-1.59l-1.4-3.29h-9.23L267.81,42a2.27,2.27,0,0,1-2.13,1.44,2.13,2.13,0,0,1-2.13-2.16,2.37,2.37,0,0,1,.27-1" fill="#61acec"/>
              <path d="M206.16,48a1.69,1.69,0,0,1,1.71-1.7h.38a1.75,1.75,0,0,1,1.55.88l4.12,6.72,4.15-6.74a1.65,1.65,0,0,1,1.53-.86H220a1.69,1.69,0,0,1,1.71,1.7V60.28a1.7,1.7,0,1,1-3.39,0V52.54l-3,4.61a1.59,1.59,0,0,1-2.84,0l-3-4.54v7.71a1.68,1.68,0,0,1-3.35,0Z" fill="#264467"/>
              <path d="M225.41,60.15V48a1.69,1.69,0,0,1,1.7-1.7h8.6a1.52,1.52,0,1,1,0,3H228.8v3.15h5.92a1.54,1.54,0,0,1,1.53,1.53,1.52,1.52,0,0,1-1.53,1.51H228.8v3.26h7a1.52,1.52,0,1,1,0,3h-8.71a1.69,1.69,0,0,1-1.7-1.7" fill="#264467"/>
              <path d="M239.68,60.72a1.7,1.7,0,0,1-.64-1.31,1.62,1.62,0,0,1,1.62-1.64,1.54,1.54,0,0,1,1,.36,3.25,3.25,0,0,0,2.06.78c1.33,0,2.13-.78,2.13-2.58V47.91a1.71,1.71,0,1,1,3.41,0v8.58a5.62,5.62,0,0,1-1.46,4.14,5.53,5.53,0,0,1-4,1.44,6.54,6.54,0,0,1-4.1-1.35" fill="#264467"/>
              <path d="M265,54.14v0a4.71,4.71,0,0,0-4.7-4.87,4.64,4.64,0,0,0-4.66,4.83v0a4.72,4.72,0,0,0,4.7,4.88A4.64,4.64,0,0,0,265,54.14m-12.93,0v0a8.25,8.25,0,0,1,16.5,0v0a8.25,8.25,0,0,1-16.5,0" fill="#264467"/>
              <path d="M278.48,53.87c1.66,0,2.61-.89,2.61-2.19v0c0-1.46-1-2.21-2.68-2.21H275v4.45ZM271.6,48a1.69,1.69,0,0,1,1.71-1.7h5.39a6.18,6.18,0,0,1,4.52,1.57,4.88,4.88,0,0,1,1.33,3.55v0a4.73,4.73,0,0,1-3.1,4.72l2.37,2.88a2,2,0,0,1,.55,1.31A1.59,1.59,0,0,1,282.75,62a2,2,0,0,1-1.68-.89l-3.33-4.21H275v3.39a1.71,1.71,0,1,1-3.42,0Z" fill="#264467"/>
              <path d="M209.35,68.83a1.25,1.25,0,0,0,1.41-1.23v0c0-.8-.56-1.22-1.45-1.22h-1.37v2.47Zm-3.19-3.19a.88.88,0,0,1,.89-.89h2.41c1.93,0,3.1,1.14,3.1,2.8v0c0,1.87-1.46,2.84-3.27,2.84h-1.35V72a.89.89,0,1,1-1.78,0Z" fill="#264467"/>
              <path d="M217.84,69.45l-1.12-2.67-1.12,2.67Zm-5,2.24,2.81-6.36a1.1,1.1,0,0,1,1-.7h.11a1.07,1.07,0,0,1,1,.7l2.82,6.36a.83.83,0,0,1,.09.36.84.84,0,0,1-.84.85.91.91,0,0,1-.86-.61L218.5,71H215l-.57,1.33a.88.88,0,0,1-.82.55.82.82,0,0,1-.82-.83.92.92,0,0,1,.11-.38" fill="#264467"/>
              <path d="M225.72,68.68c.86,0,1.36-.46,1.36-1.15v0c0-.76-.53-1.15-1.4-1.15h-1.76v2.32Zm-3.58-3a.88.88,0,0,1,.89-.89h2.8a3.25,3.25,0,0,1,2.36.82,2.55,2.55,0,0,1,.69,1.85v0a2.47,2.47,0,0,1-1.62,2.46l1.24,1.5a1.07,1.07,0,0,1,.29.68.83.83,0,0,1-.85.82,1.06,1.06,0,0,1-.87-.46l-1.74-2.19h-1.41V72a.89.89,0,1,1-1.78,0Z" fill="#264467"/>
              <path d="M235,69.45l-1.12-2.67-1.12,2.67Zm-5,2.24,2.82-6.36a1.09,1.09,0,0,1,1-.7h.1a1.08,1.08,0,0,1,1,.7l2.82,6.36a1,1,0,0,1,.09.36.84.84,0,0,1-.84.85.9.9,0,0,1-.86-.61L235.69,71h-3.56l-.56,1.33a.88.88,0,0,1-.82.55.82.82,0,0,1-.82-.83,1.07,1.07,0,0,1,.1-.38" fill="#264467"/>
              <path d="M244.67,66.39H243a.82.82,0,0,1,0-1.64h5.2a.82.82,0,1,1,0,1.64h-1.71V72a.89.89,0,1,1-1.78,0Z" fill="#264467"/>
              <path d="M256.29,68.82v0a2.45,2.45,0,0,0-2.44-2.54,2.42,2.42,0,0,0-2.43,2.52v0a2.46,2.46,0,0,0,2.45,2.54,2.41,2.41,0,0,0,2.42-2.51m-6.73,0v0a4.19,4.19,0,0,1,4.31-4.18,4.14,4.14,0,0,1,4.28,4.16v0a4.3,4.3,0,0,1-8.59,0" fill="#264467"/>
              <path d="M262.88,71.23a2.3,2.3,0,0,0,2.44-2.41v0a2.32,2.32,0,0,0-2.44-2.43h-1.37v4.87Zm-3.15-5.59a.89.89,0,0,1,.89-.89h2.26a4,4,0,0,1,4.3,4v0a4,4,0,0,1-4.3,4h-2.26a.89.89,0,0,1-.89-.89Z" fill="#264467"/>
              <path d="M275.13,68.82v0a2.46,2.46,0,0,0-2.45-2.54,2.41,2.41,0,0,0-2.42,2.52v0a2.46,2.46,0,0,0,2.45,2.54,2.41,2.41,0,0,0,2.42-2.51m-6.73,0v0a4.18,4.18,0,0,1,4.31-4.18A4.14,4.14,0,0,1,277,68.77v0a4.3,4.3,0,0,1-8.59,0" fill="#264467"/>
              <path d="M278.35,72a.84.84,0,0,1-.33-.67.82.82,0,0,1,.83-.82.88.88,0,0,1,.51.16,3.4,3.4,0,0,0,2.06.73c.73,0,1.17-.29,1.17-.76v0c0-.45-.28-.68-1.63-1-1.63-.42-2.68-.87-2.68-2.48v0c0-1.46,1.18-2.43,2.83-2.43a4.68,4.68,0,0,1,2.56.71.83.83,0,1,1-.88,1.4,3.35,3.35,0,0,0-1.7-.54c-.68,0-1,.31-1,.7v0c0,.53.35.71,1.74,1.07,1.64.42,2.57,1,2.57,2.42v0c0,1.61-1.23,2.51-3,2.51a5.28,5.28,0,0,1-3-1" fill="#264467"/>
            </g>
            <g>
              <path d="M129,65h-1.08l-.43-1.12h-2L125.11,65h-1L126,60.1h1Zm-1.83-1.95-.68-1.82-.66,1.82Z"/>
              <polygon points="129.25 65.02 129.25 60.14 130.25 60.14 130.25 64.19 132.71 64.19 132.71 65.02 129.25 65.02"/>
              <path d="M136,63.2l1,.31a2.19,2.19,0,0,1-.74,1.2,2.1,2.1,0,0,1-1.31.39,2.15,2.15,0,0,1-1.61-.66,2.58,2.58,0,0,1-.63-1.84,2.65,2.65,0,0,1,.64-1.9A2.18,2.18,0,0,1,135,60a2.05,2.05,0,0,1,1.47.53,2.09,2.09,0,0,1,.51.91l-1,.23a1.09,1.09,0,0,0-.36-.6,1,1,0,0,0-.67-.22,1.11,1.11,0,0,0-.89.39,1.91,1.91,0,0,0-.35,1.27,2.1,2.1,0,0,0,.34,1.33,1.1,1.1,0,0,0,.87.39,1,1,0,0,0,.68-.25,1.52,1.52,0,0,0,.42-.8"/>
              <path d="M141.93,65h-1.08l-.43-1.12h-2L138.05,65H137l1.91-4.92H140Zm-1.83-1.95-.68-1.82-.66,1.82Z"/>
              <polygon points="142.29 65.02 142.29 60.14 143.28 60.14 143.28 64.19 145.75 64.19 145.75 65.02 142.29 65.02"/>
              <path d="M146.15,60.1H148a3.75,3.75,0,0,1,.94.09,1.69,1.69,0,0,1,.74.46,2.08,2.08,0,0,1,.47.79,3.63,3.63,0,0,1,.16,1.17,3.32,3.32,0,0,1-.15,1,2.06,2.06,0,0,1-.53.86,1.77,1.77,0,0,1-.69.4,3,3,0,0,1-.88.1h-1.87Zm1,.84v3.25h.74a2.7,2.7,0,0,0,.6,0,1,1,0,0,0,.41-.2,1.19,1.19,0,0,0,.26-.48,3.49,3.49,0,0,0,.1-.9,3.14,3.14,0,0,0-.1-.87,1.24,1.24,0,0,0-.28-.48,1.05,1.05,0,0,0-.46-.23,5.07,5.07,0,0,0-.82,0Z"/>
              <path d="M151,59.65l.46-1h1.06l-.92,1Zm-.24.45h1V65h-1Z"/>
              <path d="M157.1,65H156l-.42-1.12h-2L153.22,65h-1.05l1.91-4.92h1.06Zm-1.82-1.95-.68-1.82-.67,1.82Z"/>
              <polygon points="159.42 65.02 159.42 60.1 160.91 60.1 161.79 63.46 162.68 60.1 164.16 60.1 164.16 65.02 163.25 65.02 163.24 61.15 162.27 65.02 161.31 65.02 160.34 61.15 160.34 65.02 159.42 65.02"/>
              <path d="M169.47,65h-1.08L168,63.9h-2L165.58,65h-1.05l1.91-4.92h1.06Zm-1.83-1.95L167,61.25l-.67,1.82Z"/>
              <polygon points="170.04 65.02 170.04 62.95 168.24 60.1 169.41 60.1 170.57 62.05 171.7 60.1 172.84 60.1 171.04 62.96 171.04 65.02 170.04 65.02"/>
              <path d="M172.42,62.59a3.12,3.12,0,0,1,.23-1.26,2.19,2.19,0,0,1,.45-.67,2.08,2.08,0,0,1,.64-.45A2.71,2.71,0,0,1,174.8,60a2.32,2.32,0,0,1,1.74.67,2.62,2.62,0,0,1,.65,1.88,2.57,2.57,0,0,1-.65,1.86,2.28,2.28,0,0,1-1.73.67,2.32,2.32,0,0,1-1.74-.66,2.58,2.58,0,0,1-.65-1.85m1,0a1.86,1.86,0,0,0,.38,1.26,1.33,1.33,0,0,0,1.95,0,1.88,1.88,0,0,0,.38-1.29,1.79,1.79,0,0,0-.37-1.26,1.38,1.38,0,0,0-2,0,1.85,1.85,0,0,0-.37,1.27"/>
              <path d="M177.52,65V60.1h2.09a3.92,3.92,0,0,1,1.15.13,1.18,1.18,0,0,1,.57.47,1.47,1.47,0,0,1,.21.78,1.37,1.37,0,0,1-.32.92,1.55,1.55,0,0,1-1,.45,2.56,2.56,0,0,1,.53.41,5.29,5.29,0,0,1,.56.8l.61,1h-1.19L180,64a7.13,7.13,0,0,0-.52-.72.82.82,0,0,0-.3-.21,2,2,0,0,0-.5-.05h-.2v2Zm1-2.84h.73a4.81,4.81,0,0,0,.89,0,.62.62,0,0,0,.28-.22.59.59,0,0,0,.1-.36.57.57,0,0,0-.5-.6h-1.5Z"/>
              <rect x="172.05" y="72.05" width="0.92" height="0.93"/>
              <path d="M127.56,68.13h1.78a3.52,3.52,0,0,1,.92.09,1.56,1.56,0,0,1,.73.44,2.14,2.14,0,0,1,.46.79,3.44,3.44,0,0,1,.16,1.14,3.15,3.15,0,0,1-.15,1,2.1,2.1,0,0,1-.51.85,1.65,1.65,0,0,1-.69.39,2.89,2.89,0,0,1-.86.1h-1.84Zm1,.82v3.19h.73a2.81,2.81,0,0,0,.59,0,1,1,0,0,0,.39-.2,1.14,1.14,0,0,0,.26-.47,3.33,3.33,0,0,0,.1-.88,3.06,3.06,0,0,0-.1-.86,1.13,1.13,0,0,0-.28-.47,1,1,0,0,0-.45-.23,6.24,6.24,0,0,0-.8,0Z"/>
              <polygon points="131.94 72.96 131.94 68.13 135.51 68.13 135.51 68.95 132.91 68.95 132.91 70.02 135.33 70.02 135.33 70.84 132.91 70.84 132.91 72.14 135.61 72.14 135.61 72.96 131.94 72.96"/>
              <path d="M138,68.13h1.93a4.61,4.61,0,0,1,.85.05,1.06,1.06,0,0,1,.5.2,1.13,1.13,0,0,1,.38.4,1.19,1.19,0,0,1,0,1.19,1.11,1.11,0,0,1-.49.42,1.3,1.3,0,0,1,.67.44,1.16,1.16,0,0,1,.24.73,1.46,1.46,0,0,1-.15.64,1.21,1.21,0,0,1-.42.5,1.48,1.48,0,0,1-.65.23c-.17,0-.56,0-1.18,0H138Zm1,.8v1.12h.64c.38,0,.61,0,.71,0a.7.7,0,0,0,.39-.17.5.5,0,0,0,.15-.38.53.53,0,0,0-.13-.36.52.52,0,0,0-.37-.17c-.09,0-.37,0-.83,0Zm0,1.92v1.29h.9a4.61,4.61,0,0,0,.68,0,.58.58,0,0,0,.35-.19.6.6,0,0,0,.14-.41.59.59,0,0,0-.41-.59,3.23,3.23,0,0,0-.87-.07Z"/>
              <path d="M142.35,70.57a3.15,3.15,0,0,1,.22-1.23,2.32,2.32,0,0,1,.45-.67,1.86,1.86,0,0,1,.63-.43,2.57,2.57,0,0,1,1-.2,2.25,2.25,0,0,1,1.7.67,2.53,2.53,0,0,1,.65,1.85,2.5,2.5,0,0,1-.64,1.82,2.24,2.24,0,0,1-1.7.66,2.28,2.28,0,0,1-1.71-.65,2.5,2.5,0,0,1-.64-1.82m1,0a1.8,1.8,0,0,0,.38,1.24,1.21,1.21,0,0,0,1,.43,1.23,1.23,0,0,0,1-.42,2.32,2.32,0,0,0,0-2.5,1.25,1.25,0,0,0-1-.41,1.22,1.22,0,0,0-1,.42,1.79,1.79,0,0,0-.37,1.24"/>
              <path d="M149.89,71.19v-.82H152V72.3a2.71,2.71,0,0,1-.89.52,3.21,3.21,0,0,1-1.17.23,2.54,2.54,0,0,1-1.32-.33,2,2,0,0,1-.85-.9,3,3,0,0,1-.29-1.29,2.79,2.79,0,0,1,.32-1.34,2.13,2.13,0,0,1,.93-.9,2.48,2.48,0,0,1,1.15-.24,2.34,2.34,0,0,1,1.41.37,1.7,1.7,0,0,1,.65,1l-1,.18a1.06,1.06,0,0,0-.38-.56,1.15,1.15,0,0,0-.71-.21,1.32,1.32,0,0,0-1,.41,1.71,1.71,0,0,0-.38,1.2,1.88,1.88,0,0,0,.39,1.29,1.27,1.27,0,0,0,1,.43,1.71,1.71,0,0,0,.62-.12,1.85,1.85,0,0,0,.52-.29v-.61Z"/>
              <path d="M152.41,70.57a3,3,0,0,1,.22-1.23,2.32,2.32,0,0,1,.45-.67,1.86,1.86,0,0,1,.63-.43,2.57,2.57,0,0,1,1-.2,2.3,2.3,0,0,1,1.71.67,2.56,2.56,0,0,1,.63,1.85,2.53,2.53,0,0,1-.63,1.82,2.24,2.24,0,0,1-1.7.66,2.28,2.28,0,0,1-1.71-.65,2.5,2.5,0,0,1-.64-1.82m1,0a1.8,1.8,0,0,0,.37,1.24,1.23,1.23,0,0,0,1,.43,1.26,1.26,0,0,0,1-.42,2.32,2.32,0,0,0,0-2.5,1.27,1.27,0,0,0-1-.41,1.2,1.2,0,0,0-1,.42,1.79,1.79,0,0,0-.37,1.24"/>
              <polygon points="158.54 72.96 158.54 68.95 157.11 68.95 157.11 68.13 160.95 68.13 160.95 68.95 159.52 68.95 159.52 72.96 158.54 72.96"/>
              <path d="M165.32,73h-1.07l-.42-1.1H161.9l-.4,1.1h-1l1.88-4.83h1ZM163.52,71l-.67-1.79L162.2,71Zm-1-3.36.45-1h1l-.9,1Z"/>
              <path d="M168,68.13h1.79a3.58,3.58,0,0,1,.92.09,1.62,1.62,0,0,1,.73.44,2.29,2.29,0,0,1,.46.79,3.73,3.73,0,0,1,.16,1.14,3.15,3.15,0,0,1-.15,1,2.11,2.11,0,0,1-.52.85,1.67,1.67,0,0,1-.68.39,3,3,0,0,1-.87.1H168Zm1,.82v3.19h.73a2.75,2.75,0,0,0,.59,0,1,1,0,0,0,.4-.2,1.14,1.14,0,0,0,.25-.47,3,3,0,0,0,.1-.88,2.72,2.72,0,0,0-.1-.86,1.13,1.13,0,0,0-.28-.47.92.92,0,0,0-.45-.23,6,6,0,0,0-.8,0Z"/>
              <path d="M176.32,71.18l.94.3a2.09,2.09,0,0,1-.72,1.18,2.29,2.29,0,0,1-2.86-.27,2.5,2.5,0,0,1-.63-1.8,2.6,2.6,0,0,1,.63-1.87,2.13,2.13,0,0,1,1.64-.67,2,2,0,0,1,1.44.52,1.85,1.85,0,0,1,.49.9l-1,.22a1.09,1.09,0,0,0-.36-.59,1,1,0,0,0-.66-.22,1.08,1.08,0,0,0-.87.39,1.85,1.85,0,0,0-.34,1.25,2,2,0,0,0,.33,1.3,1.06,1.06,0,0,0,.86.39,1,1,0,0,0,.67-.25,1.52,1.52,0,0,0,.4-.78"/>
              <rect x="177.41" y="72.06" width="0.93" height="0.92"/>
              <path d="M135.61,15.38a18.66,18.66,0,0,0,17.27,0,18.71,18.71,0,0,0,17.28,0v31a6.91,6.91,0,0,1-7,6.8,18.16,18.16,0,0,0-10.25,2.58c-3.21-2.06-6.54-2.58-10.28-2.58a6.87,6.87,0,0,1-7-6.8Z" fill="#2f5397"/>
              <path d="M141.5,43.2a4.43,4.43,0,0,0,4.5,4.51,11.84,11.84,0,0,1,6.85,1.66,11.81,11.81,0,0,1,6.81-1.66,4.71,4.71,0,0,0,4.82-4.51l0-20.83c-2.81,1.46-8.83.5-11.52-.9-2.66,1.38-8.74,2.38-11.51.9" fill="#f3d331"/>
              <path d="M146.34,41.61c.52-.18,1.2-.57.83-1.25,0,0-.84.88-1.49.83a1.77,1.77,0,0,0,.78-2.36,1.91,1.91,0,0,0-2.63-.3A1.86,1.86,0,0,0,143,41a1.83,1.83,0,0,0,2.5.34,2.73,2.73,0,0,1-1.49.89s.54,1.05,1.75-.34c2.1,1.47,1.64,3.33,1.81,4.16l1,.05c-.12-.61-.13-3.07-2.19-4.48m-.84-.49c-.4.26-1,.09-1.54-.68s-.48-1.61-.09-1.82,1.14.17,1.63.93.4,1.36,0,1.57" fill="#c82329"/>
              <path d="M143.43,38.57c.09.13.57-.16.53-.29s0-.81.4-.85v-.17s-.66,0-.8.42c0,0-.52-.55-.65-.5s.13.8.13.8c-.44-.08-.66.51-.66.51l.09.08a.63.63,0,0,1,1,0" fill="#c82329"/>
              <path d="M161.94,38.53a1.93,1.93,0,0,0-2.64.3,1.78,1.78,0,0,0,.79,2.36c-.65.06-1.49-.83-1.49-.83-.37.68.3,1.07.83,1.25-2.06,1.41-2.06,3.87-2.2,4.48l1-.05c.18-.83-.29-2.69,1.83-4.16,1.19,1.39,1.73.34,1.73.34a2.71,2.71,0,0,1-1.48-.89,1.84,1.84,0,0,0,2.5-.34,1.86,1.86,0,0,0-.88-2.46m-.14,1.91c-.52.77-1.14.94-1.53.68s-.53-.85,0-1.57,1.23-1.15,1.62-.93.4,1.06-.09,1.82" fill="#c82329"/>
              <path d="M148.8,43.12a2.11,2.11,0,0,0-.49,1.48,1.68,1.68,0,0,0,1.32-.64,1.77,1.77,0,0,0,.48-1.44,1.93,1.93,0,0,0-1.31.6" fill="#c82329"/>
              <path d="M162.73,38s.27-.72.13-.81-.65.51-.65.51c-.14-.42-.8-.42-.8-.42v.17c.44,0,.53.63.39.85s.45.42.54.29a.63.63,0,0,1,1,0l.09-.08s-.22-.59-.66-.51" fill="#c82329"/>
              <path d="M157,43.12a2,2,0,0,0-1.32-.6,1.78,1.78,0,0,0,.49,1.44,1.68,1.68,0,0,0,1.32.64,2.06,2.06,0,0,0-.49-1.48" fill="#c82329"/>
              <path d="M151.82,26.31a.42.42,0,1,1,.83,0,.42.42,0,0,1-.83,0m2-1.28.88-1.35-1.37.51L152.87,23l-.53,1.23-1.4-.51.92,1.35Zm.51,12.42c-.73-.56.08-.8.28-.62a2.89,2.89,0,0,0,3.43.47,3.64,3.64,0,0,1-1.89-1.87,4.06,4.06,0,0,0,4.65-.21,3.74,3.74,0,0,1-3.11-1.36,5.27,5.27,0,0,0,4.61-1.18,12.28,12.28,0,0,1-3.51-1c4-.13,4.34-3,4.39-3-1.1.73-4,.39-4,.39,4.18-1.49,3.87-4.92,3.87-4.92-.88,1.31-4.92,2.59-4.92,2.59a2.67,2.67,0,0,0-2,2.46,1,1,0,0,1-1,.85c-1.08,0-1.06-1.56-1.06-2.3,0-1.1,0-2.37-.84-2.37h-1.58c-.28,0-.77,0-1,.21-.41.48-.34,1.73-.16,1.48a1.87,1.87,0,0,1,1,0c.51.15.13,1.74.13,2.08a1,1,0,0,1-1,.9,1,1,0,0,1-1-.85,2.7,2.7,0,0,0-1.93-2.46s-4.14-1.28-5-2.59c0,0-.31,3.47,3.91,5,0,0-3,.26-4.09-.47,0,0,.57,3,4.57,3.11a13.45,13.45,0,0,1-3.6.76,5.11,5.11,0,0,0,4.7,1.53,4.44,4.44,0,0,1-3.3,1.1,4.08,4.08,0,0,0,4.66.3,3.46,3.46,0,0,1-1.84,1.78,3,3,0,0,0,3.47-.47c.23-.26,1,0,.23.62-1,.77-2.44.95-3.05,2.23l.74.14c-.83.84-1.94,2-2.06,2.07s-.26-.39-1.09,0c-.44.21-.66.76-.35,1,0,0-.14.68.65.64,0,0,.31.55,1,.13s0-.3-.13-.47,0-.08,0-.08c.31,0,.71-.39.44-.68a25.91,25.91,0,0,1,2.5-1.62l.14.68a2.9,2.9,0,0,1,1.53-1,4.25,4.25,0,0,0-.83,3.39s.18-.55,1.06-.64c0,0-1.23,1.49.75,4.37,2-2.88.83-4.37.83-4.37a1.25,1.25,0,0,1,1.1.64,4.28,4.28,0,0,0-.88-3.42,2.81,2.81,0,0,1,1.54,1l.14-.7a29.73,29.73,0,0,1,2.5,1.64c-.27.29.17.63.43.68,0,0,.09,0,0,.08s-.75,0-.13.47a.64.64,0,0,0,1-.13c.79,0,.67-.64.67-.64.3-.21.08-.76-.4-1-.83-.43-1.1,0-1.1,0s-1.19-1.23-2-2.07l.72-.14c-.53-1.22-1.95-1.49-2.91-2.23"/>
              <path d="M138.4,24a2.82,2.82,0,0,1-1.57-.1s-.11,1,1.38.66c-.08.77.39,1.35.6,2.11a2,2,0,0,0-.4-.35A2.17,2.17,0,0,0,137,26.1a1.41,1.41,0,0,0,.71,1.06,1.83,1.83,0,0,0,1.23.32,3.37,3.37,0,0,1-.36,1.3l.71.55a4.43,4.43,0,0,0-.09-3.35c-.36-.76-.43-1.05-.39-1.34.49.18,1.45.42,1.58-.41a2.8,2.8,0,0,1-1.58-.16,1.81,1.81,0,0,0,1.88-1.37,1.69,1.69,0,0,0-1.8-1.56,1.81,1.81,0,0,0-2.07,1.31A1.71,1.71,0,0,0,138.4,24m.45-2.86c.4,0,.7.72.66,1.57s-.48,1.23-.88,1.19-.79-.51-.75-1.32.53-1.48,1-1.44" fill="#f2d231"/>
              <path d="M154.41,20.29c-.27.29,0,.76,0,.76h.13a.61.61,0,0,1,.53-.76c.13,0,.13-.51,0-.51s-.66-.34-.44-.72l-.13,0s-.35.47-.09.77c0,0-.75.12-.75.25s.71.26.71.26" fill="#f2d231"/>
              <path d="M138.59,20.84c0,.13.53.17.57,0a.61.61,0,0,1,.79-.43l0-.08s-.44-.38-.79-.13c0,0-.08-.68-.22-.68s-.35.64-.35.64c-.26-.25-.79,0-.79,0l0,.13c.4-.17.71.26.71.47" fill="#f2d231"/>
              <path d="M166.82,20.88c0,.13.57.09.57,0a.53.53,0,0,1,.71-.47l0-.13s-.53-.29-.79,0c0,0-.22-.68-.35-.64s-.22.68-.22.68c-.35-.25-.79.13-.79.13l0,.09a.6.6,0,0,1,.79.42" fill="#f2d231"/>
              <path d="M167.46,33.36a.6.6,0,0,1,.79-.43l0-.13s-.44-.34-.79-.08c0,0-.09-.68-.22-.68s-.35.63-.35.63c-.26-.25-.79,0-.79,0l0,.13a.51.51,0,0,1,.7.46c0,.13.58.17.58,0" fill="#f2d231"/>
              <path d="M167.21,24.07a2.76,2.76,0,0,1-1.57.16c.13.82,1.09.59,1.57.41,0,.29,0,.58-.39,1.34a4.3,4.3,0,0,0-.09,3.35l.71-.55a3.5,3.5,0,0,1-.38-1.3,1.93,1.93,0,0,0,1.26-.32,1.54,1.54,0,0,0,.7-1.06,2.18,2.18,0,0,0-1.45.26,1.59,1.59,0,0,0-.44.41c.19-.79.69-1.38.63-2.17,1.51.32,1.39-.66,1.39-.66a2.82,2.82,0,0,1-1.57.1,1.7,1.7,0,0,0,1.61-1.59,1.79,1.79,0,0,0-2.06-1.31,1.69,1.69,0,0,0-1.8,1.56,1.81,1.81,0,0,0,1.88,1.37m-.08-2.89c.44,0,.93.59,1,1.44s-.36,1.27-.75,1.32-.88-.38-.92-1.19.3-1.53.7-1.57" fill="#f2d231"/>
              <path d="M139.79,32.85l0-.13s-.53-.3-.79,0c0,0-.22-.67-.35-.63s-.22.68-.22.68c-.35-.26-.79.08-.79.08l0,.13a.6.6,0,0,1,.79.43c.05.12.57.08.57,0a.52.52,0,0,1,.71-.46" fill="#f2d231"/>
              <path d="M150.8,20.29a.61.61,0,0,1,.53.76h.13s.31-.47,0-.76c0,0,.7-.13.7-.26s-.75-.25-.75-.25c.26-.3-.09-.77-.09-.77l-.13,0c.22.38-.22.72-.44.72s-.13.51,0,.51" fill="#f2d231"/>
              <path d="M138.43,41.8l.7-.55c-1-2.1.46-2.85.33-4.17,1.5.31,1.38-.67,1.38-.67a2.62,2.62,0,0,1-1.65.08,1.69,1.69,0,0,0,1.7-1.56,1.86,1.86,0,0,0-2.07-1.36,1.74,1.74,0,0,0-1.8,1.61A1.75,1.75,0,0,0,139,36.5c-.47.39-1.62.21-1.62.21.13.82,1.09.58,1.57.41,0,.28,0,.58-.39,1.33-.06.13-.11.27-.16.41a1.15,1.15,0,0,0-.45-.75,1.7,1.7,0,0,0-1.32-.47,1.22,1.22,0,0,0,.39,1.15,1.76,1.76,0,0,0,1.27.47,4.27,4.27,0,0,0,.19,2.54m-.27-6.58c0-.85.27-1.52.66-1.57s.92.6,1,1.45-.31,1.27-.75,1.31-.84-.38-.88-1.19" fill="#f2d231"/>
              <path d="M138.54,45.79c0,.09.52-.21.44-.29a.58.58,0,0,1,.4-.81l0-.13s-.57,0-.7.38c0,0-.49-.5-.62-.42s.18.72.18.72c-.44-.08-.66.47-.66.47l.09.08a.59.59,0,0,1,.92,0" fill="#f2d231"/>
              <path d="M167.79,45.24s.27-.63.18-.72-.61.42-.61.42c-.14-.38-.71-.38-.71-.38l0,.13a.55.55,0,0,1,.35.81c0,.08.44.38.49.29a.55.55,0,0,1,.88,0l.13-.08s-.23-.55-.67-.47" fill="#f2d231"/>
              <path d="M163.81,21.14l-.53-.73a3.52,3.52,0,0,1-1.36.25,1.85,1.85,0,0,0-.21-1.22,1.53,1.53,0,0,0-1.06-.77,1.72,1.72,0,0,0,.18,1.4,1.6,1.6,0,0,0,.35.46,8,8,0,0,0-2.11-.78c.39-1.41-.62-1.38-.62-1.38a2.39,2.39,0,0,1,0,1.56A1.62,1.62,0,0,0,157,18.21,1.7,1.7,0,0,0,155.38,20a1.65,1.65,0,0,0,1.45,1.87,1.68,1.68,0,0,0,1.57-1.73c.36.49.09,1.56.09,1.56.81,0,.67-1,.56-1.47a3.05,3.05,0,0,1,1.29.49,4.93,4.93,0,0,0,3.47.39m-6.85-.3c-.84-.05-1.5-.38-1.54-.81s.7-.81,1.58-.81,1.28.47,1.28.85-.45.81-1.32.77" fill="#f2d231"/>
              <path d="M169.43,37.64a1.75,1.75,0,0,0-1.36.47,1.33,1.33,0,0,0-.44.74c0-.14-.11-.27-.17-.4-.36-.75-.43-1-.39-1.33.48.17,1.44.41,1.57-.41,0,0-1.15.18-1.62-.21A1.75,1.75,0,0,0,169,35.18a1.76,1.76,0,0,0-1.8-1.61,1.86,1.86,0,0,0-2.07,1.36,1.68,1.68,0,0,0,1.69,1.56,2.45,2.45,0,0,1-1.6-.08s-.16,1,1.34.66c-.09,1.33,1.38,2.07.33,4.18l.7.55a4.18,4.18,0,0,0,.2-2.54,1.77,1.77,0,0,0,1.25-.47,1.34,1.34,0,0,0,.44-1.15m-3.25-2.54c0-.85.53-1.49,1-1.45s.75.72.7,1.57-.48,1.23-.92,1.19-.79-.51-.75-1.31" fill="#f2d231"/>
              <path d="M167.1,45.84a1.77,1.77,0,0,0-2.42.21,1.6,1.6,0,0,0,.65,2.18c-.61,0-1.4-.74-1.4-.74-.4.7.52,1.07,1,1.21-.14.26-.39.45-1.14.83a4.64,4.64,0,0,0-2.19,2.63l.92,0a3.19,3.19,0,0,1,.51-1.23,2,2,0,0,0,1.16.47,1.64,1.64,0,0,0,1.28-.47,2,2,0,0,0-1.91-.55c.64-.49,1.39-.68,1.85-1.34,1,1.09,1.51.23,1.51.23a2.43,2.43,0,0,1-1.36-.85,1.76,1.76,0,0,0,2.33-.29,1.71,1.71,0,0,0-.79-2.25m-.18,1.74c-.49.68-1.06.85-1.41.63s-.48-.8,0-1.48,1.19-1,1.54-.81.35,1-.13,1.66" fill="#f2d231"/>
              <path d="M142.19,49.53c-.75-.38-1-.57-1.14-.83.48-.14,1.4-.51,1-1.21,0,0-.83.8-1.44.74a1.6,1.6,0,0,0,.69-2.18,1.78,1.78,0,0,0-2.42-.21,1.7,1.7,0,0,0-.79,2.25,1.72,1.72,0,0,0,2.35.25,2.35,2.35,0,0,1-1.38.89s.5.87,1.51-.23c.46.66,1.2.85,1.84,1.34a2,2,0,0,0-1.9.55,1.52,1.52,0,0,0,1.27.46,2.07,2.07,0,0,0,1.16-.46,3.19,3.19,0,0,1,.51,1.23l.92,0a4.56,4.56,0,0,0-2.19-2.63m-1.72-1.32c-.35.22-.92,0-1.4-.63s-.49-1.45-.14-1.66,1.06.13,1.54.81.35,1.27,0,1.48" fill="#f2d231"/>
              <path d="M149.09,21.9A1.66,1.66,0,0,0,150.54,20,1.7,1.7,0,0,0,149,18.21a1.62,1.62,0,0,0-1.45,1.72,2.34,2.34,0,0,1,0-1.56s-1,0-.62,1.38a8,8,0,0,0-2.11.78,1.37,1.37,0,0,0,.36-.46,1.72,1.72,0,0,0,.17-1.4,1.49,1.49,0,0,0-1,.77,1.8,1.8,0,0,0-.22,1.22,3.58,3.58,0,0,1-1.36-.25l-.53.73a4.92,4.92,0,0,0,3.47-.39,3,3,0,0,1,1.3-.49c-.12.46-.26,1.44.55,1.47,0,0-.27-1.07.09-1.56a1.69,1.69,0,0,0,1.58,1.73m-1.45-1.83c0-.38.44-.8,1.27-.85s1.59.43,1.59.81-.71.76-1.54.81-1.37-.34-1.32-.77" fill="#f2d231"/>
              <path d="M154.34,51.74a2.63,2.63,0,0,1-1.4.15c.24-.42.6-1.29-.22-1.51,0,0,0,1-.42,1.44a1.69,1.69,0,0,0-1.12-2,1.74,1.74,0,0,0-1.89,1.53,1.77,1.77,0,0,0,1.14,2.12,1.66,1.66,0,0,0,1.82-1.39,2.31,2.31,0,0,1-.33,1.51s1,.3.92-1.15a7.48,7.48,0,0,0,2.27-.31,1.74,1.74,0,0,0-.46.32,2.21,2.21,0,0,0-.48,1.36,1.64,1.64,0,0,0,1.23-.56,1.59,1.59,0,0,0,.48-1.11,3.45,3.45,0,0,1,1.27.52l.71-.59a5,5,0,0,0-3.52-.34m-2.15.17c-.09.42-.66.72-1.5.55s-1.4-.72-1.32-1.1.84-.6,1.72-.47,1.19.64,1.1,1" fill="#f2d231"/>
              <path d="M149.11,51c-.22-.05-.57-.47-.31-.81l-.13-.09s-.44.38-.22.77c0,0-.7,0-.75.08s.66.43.66.43c-.35.25-.13.76-.13.76h.13c-.08-.42.4-.68.66-.63.09,0,.22-.47.09-.51" fill="#f2d231"/>
            </g>
          </g>
        </g>
      </g>
    </g>
  </g>
</svg>
