<svg xmlns="http://www.w3.org/2000/svg" xmlns:xlink="http://www.w3.org/1999/xlink" viewBox="0 0 521.05 977.39">
  <defs>
    <clipPath id="clip-path" transform="translate(-19.75 -12.02)">
      <rect width="531" height="519.37" fill="none"/>
    </clipPath>
  </defs>
  <title>personaje1</title>
  <g style="isolation: isolate">
    <g id="Capa_2" data-name="Capa 2">
      <g id="Header_y_Footer" data-name="Header y Footer">
        <g>
          <g>
            <g clip-path="url(#clip-path)">
              <g>
                <g>
                  <path d="M245.25,203.05c-1.48,13-6.49,36.58-.59,42.78a25.63,25.63,0,0,0,13,7.37c-19.47,29.21-32.16,34.23-68.45-4.72,9.15-.88,4.13,3.84,4.72-1.47s3.54-47.2,3.54-47.2Z" transform="translate(-19.75 -12.02)" fill="#a56b32"/>
                  <path d="M195,233.31c1.05-14.07,2.42-33.5,2.42-33.5l47.8,3.24c-1.09,9.58-4.1,24.94-3.23,34.82A123.2,123.2,0,0,1,195,233.31Z" transform="translate(-19.75 -12.02)" fill="#7b4218"/>
                  <path d="M272.69,35.58C297.86,50,304.37,53.05,298.21,90s-11.65,76.73-8.91,106.88c-.69,10.27-63.71,34.93-117.15,4.11-4.79-48.65-5.48-114.41,5.48-144.55S234.32,17.77,272.69,35.58Z" transform="translate(-19.75 -12.02)" fill="#a56b32"/>
                  <path d="M173.18,124.64c-2.4-26-36-15.07-33.57,3.77s24,37,31.86,20.55C173.52,131.15,173.18,124.64,173.18,124.64Z" transform="translate(-19.75 -12.02)" fill="#a56b32"/>
                  <path d="M240.74,165c-.07-.18.79-.59,2.27-1.38a18.35,18.35,0,0,0,5.47-4.11,9.39,9.39,0,0,0,1.93-4,12.51,12.51,0,0,0-.15-5.18,37.54,37.54,0,0,0-2.09-5.71,62.43,62.43,0,0,1-2.31-6.48,45.82,45.82,0,0,1-2-13.21,50.41,50.41,0,0,1,1.28-10.78c1.44-6,3.08-9.43,3.35-9.34s-.67,3.75-1.63,9.67a60.09,60.09,0,0,0-.72,10.43,49.18,49.18,0,0,0,2,12.53c.62,2.17,1.4,4.26,2.19,6.27a35.87,35.87,0,0,1,2.07,6.15,14,14,0,0,1-.09,6.13,10.66,10.66,0,0,1-2.62,4.7,16,16,0,0,1-6.39,3.83C241.74,165,240.78,165.11,240.74,165Z" transform="translate(-19.75 -12.02)" fill="#7a431c"/>
                  <path d="M199.47,121.9c-.59-.3-.25-2.49,1.18-5.73a29.5,29.5,0,0,1,3.17-5.45,17,17,0,0,1,6.32-5.49,7.8,7.8,0,0,1,5.4-.44,7.5,7.5,0,0,1,3.91,3.16,13.3,13.3,0,0,1,1.82,6.65c0,3.71-.87,5.79-1.5,5.76s-1.09-2.19-2-5.25a13.75,13.75,0,0,0-2.1-4.55c-1.13-1.25-1.85-1.47-3.57-.8a17,17,0,0,0-4.8,3.87c-1.43,1.53-2.65,3.07-3.7,4.36C201.55,120.59,200.1,122.22,199.47,121.9Z" transform="translate(-19.75 -12.02)" fill="#2b1509"/>
                  <path d="M264.46,124.44c-.56-.35,0-2.5,1.72-5.6a29,29,0,0,1,3.66-5.12,17.08,17.08,0,0,1,6.81-4.87,7.7,7.7,0,0,1,5.41.07,7.51,7.51,0,0,1,3.6,3.5,13.27,13.27,0,0,1,1.19,6.8c-.31,3.7-1.41,5.68-2,5.59s-.88-2.28-1.46-5.41a13.5,13.5,0,0,0-1.66-4.73c-1-1.34-1.7-1.64-3.48-1.13a17.27,17.27,0,0,0-5.14,3.4c-1.57,1.4-2.93,2.81-4.09,4C266.65,123.33,265.05,124.82,264.46,124.44Z" transform="translate(-19.75 -12.02)" fill="#2b1509"/>
                  <path d="M225.16,65.64c1.28,5.39.77,19.78-1,20S212.31,78.48,192.79,96c-2.31-4.88-2.15-13.19-.77-17.21C194.84,70.52,219.25,59.21,225.16,65.64Z" transform="translate(-19.75 -12.02)" fill="#272328"/>
                  <path d="M278.8,68.33C277,73.53,274.55,87,275.93,87.4s10.32-5.31,21.18,14.24c2.5-4.58,3.53-12.83,3-17C299,76.22,284.34,62.63,278.8,68.33Z" transform="translate(-19.75 -12.02)" fill="#272328"/>
                  <path d="M298.25,52.89c-15.93,12.07-52.31-5.21-70.8-14.46-22.82-8.26-46.62,12.1-46,15.65.25,18.75,4.62,29.8,1.79,41.36A102.87,102.87,0,0,0,181,127c.77,6.68-8.48,11.3-8.48,11.3a89,89,0,0,0-4.62-27.49c-1.28-3.34-.26-36.73,4.62-52.41S234.53-6.71,298.25,52.89Z" transform="translate(-19.75 -12.02)" fill="#272328"/>
                  <path d="M214.11,170.71c.15-.09.71.48,1.6,1.56.44.54,1,1.21,1.56,2s1.4,1.57,2.2,2.51c3.27,3.6,8.34,8.41,15.39,10.66a30.76,30.76,0,0,0,10.19,1.46,37.73,37.73,0,0,0,8.42-1.3c4.72-1.34,7.45-2.86,7.65-2.5s-2.29,2.31-7.11,4.17a32.87,32.87,0,0,1-8.85,1.91,29.56,29.56,0,0,1-20.82-6.77,30.59,30.59,0,0,1-3.53-3.31,26.62,26.62,0,0,1-2.69-3.21c-.74-1-1.45-1.95-2-2.82s-.91-1.64-1.24-2.27C214.25,171.53,214,170.8,214.11,170.71Z" transform="translate(-19.75 -12.02)" fill="#7a431c"/>
                  <path d="M163.07,145.37c-.06.15-.73,0-1.92-.37a12.47,12.47,0,0,1-4.56-2.83,7.43,7.43,0,0,1-2-3.43,6.14,6.14,0,0,1,.69-4.73,6.58,6.58,0,0,1,4.4-3c.48-.05,1-.07,1.44-.1s1.17.18.94.14h0v0s0,.13,0-.16a7.11,7.11,0,0,0-.25-1.13,17.34,17.34,0,0,0-.61-2.15,12.27,12.27,0,0,0-.82-1.95l-.48-.89-.57-.77a5.31,5.31,0,0,0-5.61-2.21,8,8,0,0,0-4,2.39c-.81.83-1.2,1.39-1.38,1.3s0-.77.61-1.88a7.8,7.8,0,0,1,4.23-3.49,6.45,6.45,0,0,1,4-.13,7.72,7.72,0,0,1,3.83,2.56l.75,1c.22.34.41.7.62,1a13.73,13.73,0,0,1,1,2.24,19.57,19.57,0,0,1,.73,2.4,7.63,7.63,0,0,1,.27,1.24c.13.76.25,1.52.38,2.29L165,134l.1.6c.06.16-.06.1-.16.06l-.28-.1c-.75-.27-1.45-.49-2.24-.79a3,3,0,0,0-1-.27,3.69,3.69,0,0,0-.46-.08l-.91,0a4.31,4.31,0,0,0-2.9,1.83c-1.3,1.92-.53,4.29.71,5.77a16.53,16.53,0,0,0,3.7,3.13C162.59,144.77,163.14,145.21,163.07,145.37Z" transform="translate(-19.75 -12.02)" fill="#7a431c"/>
                  <g>
                    <g>
                      <path d="M171.6,108.4h-.38a4,4,0,0,1-4-4h0a4,4,0,0,1,4-4h.38a4,4,0,0,1,4,4h0A4,4,0,0,1,171.6,108.4Z" transform="translate(-19.75 -12.02)" fill="#272328"/>
                      <path d="M171.6,113.4h-.38a9,9,0,0,1,0-18h.38a9,9,0,1,1,0,18Zm-.19-10a1,1,0,1,0,.83,1A1,1,0,0,0,171.41,103.41Z" transform="translate(-19.75 -12.02)" fill="#272328"/>
                    </g>
                    <g>
                      <path d="M172.12,90.47h-.37a4,4,0,0,1-4-4h0a4,4,0,0,1,4-4h.37a4,4,0,0,1,4,4h0A4,4,0,0,1,172.12,90.47Z" transform="translate(-19.75 -12.02)" fill="#272328"/>
                      <path d="M172.12,95.47h-.37a9,9,0,0,1,0-18h.37a9,9,0,1,1,0,18Zm-.19-10a1,1,0,0,0-.82,1,.84.84,0,1,0,1.65,0A1,1,0,0,0,171.93,85.48Z" transform="translate(-19.75 -12.02)" fill="#272328"/>
                    </g>
                    <g>
                      <path d="M172.85,75.92h-.38a4,4,0,0,1-4-4h0a4,4,0,0,1,4-4h.38a4,4,0,0,1,4,4h0A4,4,0,0,1,172.85,75.92Z" transform="translate(-19.75 -12.02)" fill="#272328"/>
                      <path d="M172.85,80.92h-.38a9,9,0,0,1,0-18h.38a9,9,0,1,1,0,18Zm-.19-10a1,1,0,1,0,.83,1A1,1,0,0,0,172.66,70.93Z" transform="translate(-19.75 -12.02)" fill="#272328"/>
                    </g>
                    <g>
                      <path d="M173.17,61.22h-.37a4,4,0,0,1-4-4h0a4,4,0,0,1,4-4h.37a4,4,0,0,1,4,4h0A4,4,0,0,1,173.17,61.22Z" transform="translate(-19.75 -12.02)" fill="#272328"/>
                      <path d="M173.17,66.22h-.37a9,9,0,0,1,0-18h.37a9,9,0,1,1,0,18Zm-.19-10a1,1,0,1,0,.83,1A1,1,0,0,0,173,56.23Z" transform="translate(-19.75 -12.02)" fill="#272328"/>
                    </g>
                    <g>
                      <path d="M179.62,48.06h-.38a4,4,0,0,1-4-4h0a4,4,0,0,1,4-4h.38a4,4,0,0,1,4,4h0A4,4,0,0,1,179.62,48.06Z" transform="translate(-19.75 -12.02)" fill="#272328"/>
                      <path d="M179.62,53.06h-.38a9,9,0,0,1,0-18h.38a9,9,0,1,1,0,18Zm-.19-10a1,1,0,1,0,.83,1A1,1,0,0,0,179.43,43.07Z" transform="translate(-19.75 -12.02)" fill="#272328"/>
                    </g>
                    <g>
                      <path d="M190.07,37.68h-.38a4,4,0,0,1-4-4h0a4,4,0,0,1,4-4h.38a4,4,0,0,1,4,4h0A4,4,0,0,1,190.07,37.68Z" transform="translate(-19.75 -12.02)" fill="#272328"/>
                      <path d="M190.07,42.68h-.38a9,9,0,0,1,0-18h.38a9,9,0,1,1,0,18Zm-.19-10a1,1,0,1,0,.83,1A1,1,0,0,0,189.88,32.69Z" transform="translate(-19.75 -12.02)" fill="#272328"/>
                    </g>
                    <g>
                      <path d="M217.51,25.71h-.37a4,4,0,0,1-4-4h0a4,4,0,0,1,4-4h.37a4,4,0,0,1,4,4h0A4,4,0,0,1,217.51,25.71Z" transform="translate(-19.75 -12.02)" fill="#272328"/>
                      <path d="M217.51,30.72h-.37a9,9,0,1,1,0-18h.37a9,9,0,1,1,0,18Zm-.18-10a1,1,0,0,0-.83,1,.84.84,0,1,0,1.65,0A1,1,0,0,0,217.33,20.73Z" transform="translate(-19.75 -12.02)" fill="#272328"/>
                    </g>
                    <g>
                      <path d="M233.57,25.71h-.38a4,4,0,0,1-4-4h0a4,4,0,0,1,4-4h.38a4,4,0,0,1,4,4h0A4,4,0,0,1,233.57,25.71Z" transform="translate(-19.75 -12.02)" fill="#272328"/>
                      <path d="M233.57,30.72h-.38a9,9,0,0,1,0-18h.38a9,9,0,1,1,0,18Zm-.19-10a1,1,0,0,0,0,2,1,1,0,0,0,0-2Z" transform="translate(-19.75 -12.02)" fill="#272328"/>
                    </g>
                    <g>
                      <path d="M250.27,25h-.37a4,4,0,0,1-4-4h0a4,4,0,0,1,4-4h.37a4,4,0,0,1,4,4h0A4,4,0,0,1,250.27,25Z" transform="translate(-19.75 -12.02)" fill="#272328"/>
                      <path d="M250.27,30h-.37a9,9,0,0,1,0-18h.37a9,9,0,0,1,0,18Zm-.19-10a1,1,0,1,0,.83,1A1,1,0,0,0,250.08,20Z" transform="translate(-19.75 -12.02)" fill="#272328"/>
                    </g>
                    <g>
                      <path d="M268.17,25.69,268,26a4,4,0,0,1-5.46,1.41h0a4,4,0,0,1-1.4-5.46l.19-.33a4,4,0,0,1,5.46-1.4h0A4,4,0,0,1,268.17,25.69Z" transform="translate(-19.75 -12.02)" fill="#272328"/>
                      <path d="M264.52,33A8.89,8.89,0,0,1,260,31.72a9,9,0,0,1-3.17-12.31l.2-.33a9,9,0,1,1,15.47,9.16l-.19.32a8.94,8.94,0,0,1-5.5,4.13A9.22,9.22,0,0,1,264.52,33Zm-.74-9.66a1,1,0,0,0,1.71,1,1,1,0,0,0-.43-1.22A1,1,0,0,0,263.78,23.32Zm.08-.18h0Z" transform="translate(-19.75 -12.02)" fill="#272328"/>
                    </g>
                    <g>
                      <path d="M280.15,31.57l-.19.32a4,4,0,0,1-5.46,1.41h0a4,4,0,0,1-1.41-5.47l.2-.32a4,4,0,0,1,5.46-1.4h0A4,4,0,0,1,280.15,31.57Z" transform="translate(-19.75 -12.02)" fill="#272328"/>
                      <path d="M276.5,38.85A8.88,8.88,0,0,1,272,37.6a9,9,0,0,1-3.16-12.31L269,25a9,9,0,0,1,12.31-3.17,9,9,0,0,1,3.17,12.31l-.2.33a8.94,8.94,0,0,1-5.5,4.13A9.2,9.2,0,0,1,276.5,38.85Zm-.74-9.66a1,1,0,0,0,.44,1.22,1,1,0,0,0,.77.12,1,1,0,0,0,.51-.32,1.33,1.33,0,0,0,0-.19l-1.63-1A.86.86,0,0,0,275.76,29.19Zm.15-.14,1.62,1a1,1,0,0,0-1.62-1Zm-.26.29h0Z" transform="translate(-19.75 -12.02)" fill="#272328"/>
                    </g>
                    <g>
                      <path d="M291.14,40.4l-.2.32a4,4,0,0,1-5.46,1.41h0a4,4,0,0,1-1.4-5.47l.19-.32a4,4,0,0,1,5.46-1.4h0A4,4,0,0,1,291.14,40.4Z" transform="translate(-19.75 -12.02)" fill="#272328"/>
                      <path d="M287.5,47.68a9,9,0,0,1-7.73-13.56l.19-.32a9,9,0,1,1,15.48,9.14l-.19.33A9,9,0,0,1,287.5,47.68ZM286.75,38a1,1,0,0,0,.44,1.22,1,1,0,0,0,1.28-.2,1.33,1.33,0,0,0,0-.19l-1.63-1A.86.86,0,0,0,286.75,38Zm1.64,1.18Zm-1.49-1.32,1.62,1a1,1,0,0,0-1.62-1Z" transform="translate(-19.75 -12.02)" fill="#272328"/>
                    </g>
                    <g>
                      <path d="M299.3,51.76l-.2.33a4,4,0,0,1-5.46,1.4h0a4,4,0,0,1-1.4-5.46l.19-.32a4,4,0,0,1,5.46-1.41h0A4,4,0,0,1,299.3,51.76Z" transform="translate(-19.75 -12.02)" fill="#272328"/>
                      <path d="M295.66,59.05a9,9,0,0,1-7.73-13.57l.2-.33a9,9,0,0,1,15.47,9.16l-.19.32A9,9,0,0,1,295.66,59.05Zm-.75-9.66a1,1,0,1,0,1.28-.21A1,1,0,0,0,294.91,49.39Zm.08-.17Z" transform="translate(-19.75 -12.02)" fill="#272328"/>
                    </g>
                    <g>
                      <path d="M202.62,29.7h-.37a4,4,0,0,1-4-4h0a4,4,0,0,1,4-4h.37a4,4,0,0,1,4,4h0A4,4,0,0,1,202.62,29.7Z" transform="translate(-19.75 -12.02)" fill="#272328"/>
                      <path d="M202.62,34.7h-.38a9,9,0,0,1,0-18h.38a9,9,0,1,1,0,18Zm-.19-10a1,1,0,1,0,.83,1A1,1,0,0,0,202.43,24.72Z" transform="translate(-19.75 -12.02)" fill="#272328"/>
                    </g>
                  </g>
                  <g>
                    <path d="M190.26,47.43h-.38a4,4,0,0,1-4-4h0a4,4,0,0,1,4-4h.38a4,4,0,0,1,4,4h0A4,4,0,0,1,190.26,47.43Z" transform="translate(-19.75 -12.02)" fill="#272328"/>
                    <path d="M190.26,52.43h-.38a9,9,0,0,1,0-18h.38a9,9,0,1,1,0,18Zm-.19-10a1,1,0,0,0-.83,1,.84.84,0,1,0,1.66,0A1,1,0,0,0,190.07,42.44Z" transform="translate(-19.75 -12.02)" fill="#272328"/>
                  </g>
                  <g>
                    <path d="M181.5,63.08h-.38a4,4,0,0,1-4-4h0a4,4,0,0,1,4-4h.38a4,4,0,0,1,4,4h0A4,4,0,0,1,181.5,63.08Z" transform="translate(-19.75 -12.02)" fill="#272328"/>
                    <path d="M181.5,68.08h-.38a9,9,0,0,1,0-18h.38a9,9,0,1,1,0,18Zm-.19-10a1,1,0,1,0,.82,1A1,1,0,0,0,181.31,58.09Z" transform="translate(-19.75 -12.02)" fill="#272328"/>
                  </g>
                  <g>
                    <path d="M180.25,76.14h-.38a4,4,0,0,1-4-4h0a4,4,0,0,1,4-4h.38a4,4,0,0,1,4,4h0A4,4,0,0,1,180.25,76.14Z" transform="translate(-19.75 -12.02)" fill="#272328"/>
                    <path d="M180.25,81.14h-.38a9,9,0,0,1,0-18h.38a9,9,0,1,1,0,18Zm-.19-10a1,1,0,1,0,.83,1A1,1,0,0,0,180.06,71.15Z" transform="translate(-19.75 -12.02)" fill="#272328"/>
                  </g>
                  <g>
                    <path d="M179.93,86.15h-.37a4,4,0,0,1-4-4h0a4,4,0,0,1,4-4h.37a4,4,0,0,1,4,4h0A4,4,0,0,1,179.93,86.15Z" transform="translate(-19.75 -12.02)" fill="#272328"/>
                    <path d="M179.93,91.16h-.37a9,9,0,0,1,0-18h.37a9,9,0,0,1,0,18Zm-.18-10a1,1,0,1,0,.82,1A1,1,0,0,0,179.75,81.17Z" transform="translate(-19.75 -12.02)" fill="#272328"/>
                  </g>
                  <g>
                    <path d="M177.12,97.11h-.38a4,4,0,0,1-4-4h0a4,4,0,0,1,4-4h.38a4,4,0,0,1,4,4h0A4,4,0,0,1,177.12,97.11Z" transform="translate(-19.75 -12.02)" fill="#272328"/>
                    <path d="M177.12,102.11h-.38a9,9,0,0,1,0-18h.38a9,9,0,1,1,0,18Zm-.19-10a1,1,0,1,0,.83,1A1,1,0,0,0,176.93,92.12Z" transform="translate(-19.75 -12.02)" fill="#272328"/>
                  </g>
                  <g>
                    <path d="M205,42.73h-.38a4,4,0,0,1-4-4h0a4,4,0,0,1,4-4H205a4,4,0,0,1,4,4h0A4,4,0,0,1,205,42.73Z" transform="translate(-19.75 -12.02)" fill="#272328"/>
                    <path d="M205,47.74h-.38a9,9,0,0,1,0-18H205a9,9,0,1,1,0,18Zm-.19-10a1,1,0,0,0-.83,1,.84.84,0,1,0,1.66,0A1,1,0,0,0,204.78,37.75Z" transform="translate(-19.75 -12.02)" fill="#272328"/>
                  </g>
                  <g>
                    <path d="M221.87,43.36h-.38a4,4,0,0,1-4-4h0a4,4,0,0,1,4-4h.38a4,4,0,0,1,4,4h0A4,4,0,0,1,221.87,43.36Z" transform="translate(-19.75 -12.02)" fill="#272328"/>
                    <path d="M221.87,48.36h-.38a9,9,0,0,1,0-18h.38a9,9,0,1,1,0,18Zm-.19-10a1,1,0,0,0-.83,1,.84.84,0,1,0,1.66,0A1,1,0,0,0,221.68,38.37Z" transform="translate(-19.75 -12.02)" fill="#272328"/>
                  </g>
                  <g>
                    <path d="M237.83,44.53h-.37a4,4,0,0,1-4-4h0a4,4,0,0,1,4-4h.37a4,4,0,0,1,4,4h0A4,4,0,0,1,237.83,44.53Z" transform="translate(-19.75 -12.02)" fill="#272328"/>
                    <path d="M237.84,49.53h-.38a9,9,0,0,1,0-18h.38a9,9,0,0,1,0,18Zm-.19-10a1,1,0,1,0,.82,1A1,1,0,0,0,237.65,39.54Z" transform="translate(-19.75 -12.02)" fill="#272328"/>
                  </g>
                  <g>
                    <path d="M252.86,49.22h-.38a4,4,0,0,1-4-4h0a4,4,0,0,1,4-4h.38a4,4,0,0,1,4,4h0A4,4,0,0,1,252.86,49.22Z" transform="translate(-19.75 -12.02)" fill="#272328"/>
                    <path d="M252.86,54.23h-.38a9,9,0,1,1,0-18h.38a9,9,0,1,1,0,18Zm-.19-10a1,1,0,1,0,.83,1A1,1,0,0,0,252.67,44.24Z" transform="translate(-19.75 -12.02)" fill="#272328"/>
                  </g>
                  <g>
                    <path d="M266,51.41h-.37a4,4,0,0,1-4-4h0a4,4,0,0,1,4-4H266a4,4,0,0,1,4,4h0A4,4,0,0,1,266,51.41Z" transform="translate(-19.75 -12.02)" fill="#272328"/>
                    <path d="M266,56.42h-.37a9,9,0,0,1,0-18H266a9,9,0,1,1,0,18Zm-.19-10a1,1,0,1,0,.83,1A1,1,0,0,0,265.81,46.43Z" transform="translate(-19.75 -12.02)" fill="#272328"/>
                  </g>
                  <g>
                    <path d="M280.09,56.11h-.38a4,4,0,0,1-4-4h0a4,4,0,0,1,4-4h.38a4,4,0,0,1,4,4h0A4,4,0,0,1,280.09,56.11Z" transform="translate(-19.75 -12.02)" fill="#272328"/>
                    <path d="M280.09,61.11h-.38a9,9,0,1,1,0-18h.38a9,9,0,1,1,0,18Zm-.19-10a1,1,0,1,0,.83,1A1,1,0,0,0,279.9,51.12Z" transform="translate(-19.75 -12.02)" fill="#272328"/>
                  </g>
                  <g>
                    <path d="M296.5,61.57h-.45a4.7,4.7,0,0,1-4.68-4.68h0a4.7,4.7,0,0,1,4.68-4.69h.45a4.7,4.7,0,0,1,4.68,4.69h0A4.7,4.7,0,0,1,296.5,61.57Z" transform="translate(-19.75 -12.02)" fill="#272328"/>
                    <path d="M296.5,66.57h-.45a9.69,9.69,0,0,1,0-19.37h.45a9.69,9.69,0,0,1,0,19.37Zm-.22-9.92a.28.28,0,0,0-.1.24.28.28,0,0,0,.1.23.3.3,0,0,0,.09-.23A.31.31,0,0,0,296.28,56.65Z" transform="translate(-19.75 -12.02)" fill="#272328"/>
                  </g>
                </g>
                <path d="M264.33,891a212.42,212.42,0,0,0,4.12,40.89c22.38,8.78,77.56,15.71,104.17,2.32-5.61-25.35-53.42-3-66.46-42.84C293.46,888.88,264.33,891,264.33,891Z" transform="translate(-19.75 -12.02)" fill="#333"/>
                <path d="M177.31,908.69c-3.06,19.9-5.31,36-5.31,36-15.54,16.6-38.62,52-56,43.32-11.19-34.19,19.61-42.88,21.25-77.94C144.24,911,177.31,908.69,177.31,908.69Z" transform="translate(-19.75 -12.02)" fill="#333"/>
                <path d="M123.66,645.76c26.73-3.09,164.4,0,191.13,4.13,6.48-21.15-27.54-111.93-34-113s-98,9.29-100.42,10.84" transform="translate(-19.75 -12.02)" fill="#b3b3b3"/>
                <path d="M301.83,505.38c4.46,46.77,2.09,293.69,4.33,385.94-16,9.55-41.58,3.46-41.58,3.46-4-61.08-15.63-300.27-23-325.53-13.86-3.73-33.28,3.57-33.28,3.57-6.37,19.46-26.28,312.92-31,335.87-22.07,13.89-40.68,6.08-40.68,6.08,8.06-55.11,2.9-381.7,3.23-400.48C161.2,494,294.32,503.78,301.83,505.38Z" transform="translate(-19.75 -12.02)"/>
                <path d="M178.58,252.3c-6.07,4.25-19.29,9.11-19.29,9.11L151.6,515.5s102.85,7.29,142.54-4.45c20.06-5.94-15.8-240.53-16.4-242.35S260.88,254,260.88,254,227.53,271.33,218,272.14,178.58,252.3,178.58,252.3Z" transform="translate(-19.75 -12.02)" fill="#c2c5c6"/>
                <path d="M266.8,257.76c-6.27,61.15,18,267.18,25.31,390.49,38.87,3.64,58.1-5.06,64.92-6.3-7.27-48-29.55-111.92-32.12-164.1-2.5-51-7.69-177-8.91-188.5S266.8,257.76,266.8,257.76Z" transform="translate(-19.75 -12.02)" fill="#7d7d91"/>
                <path d="M215.93,299.07c-2.42,20.65-14.72,177.36-13.51,181S224.89,508,225.5,506.19s18.22-21.87,18.22-26.12-18.83-181-18.83-181Z" transform="translate(-19.75 -12.02)" fill="#232a7c"/>
                <path d="M202.72,286.92c3.65,4.86,8.81,17.31,11.54,18.53s10,1.21,11.54,0,10.94-16.1,10.94-16.1l-17-15.79S204.55,285.1,202.72,286.92Z" transform="translate(-19.75 -12.02)" fill="#232a7c"/>
                <path d="M194.07,242.28c-4.86,2.83-18.78,9.81-18.78,11.43s15,42.12,23.49,48.6A237.78,237.78,0,0,0,218,276.59l22.27,20.86c20.86-19.44,22.78-40.75,22.58-42s-15.34-10.18-18.12-13.32c-8.91,15.19-26.73,30-26.73,30S196.3,250.78,194.07,242.28Z" transform="translate(-19.75 -12.02)" fill="#dcdfe0"/>
                <path d="M265,256.62c-1.22,20.65,6.92,191,15,240,5.67-68,2.6-152.55,7.06-173.2a107.11,107.11,0,0,0-8.63-11.13l6-2.68c2.42-12.15,1.85-41.26,1.45-42.88S265,256.62,265,256.62Z" transform="translate(-19.75 -12.02)" fill="#67677c"/>
                <path d="M312.25,283.18c4,5,77.55,79,66.62,100.05-8.29-.27-22.15,17-30.24,22.77-3.46,2.48-7.77-.54-11.14-3.15l-20.83-16.29S305,283.74,312.25,283.18Z" transform="translate(-19.75 -12.02)" fill="#7d7d91"/>
                <g>
                  <polygon points="86.05 413.16 108.83 422.21 92.09 446.35 76.42 438.27 86.05 413.16" fill="#7b4218"/>
                  <path d="M175.6,255.2c-12.26,2.34-31.83.88-41.18,6.13S14.57,348.64,19.93,394.51C23.15,422,83.6,459.64,97,459.64c5-27.16,19.86-32.42,19.86-32.42-19.57-10.8-42.64-45.85-38.55-52.57,15.92-26.16,54.32-40.3,54.32-40.3,11.1,64.25-5.36,144-31.06,227.48s-23.9,84.95-23.9,84.95a205.6,205.6,0,0,0,74.61,2.58C174.52,599.13,222.33,439.78,175.6,255.2Z" transform="translate(-19.75 -12.02)" fill="#7d7d91"/>
                  <path d="M156.91,257.54c4.09,16.35,13.43,57.83,13.43,57.83L180,314.2l-6.13,9.64s21.9,124.41,24,158c1.75-61-1.46-161.51-22.2-226.64C164.21,253.74,156.91,257.54,156.91,257.54Z" transform="translate(-19.75 -12.02)" fill="#67677c"/>
                  <g>
                    <rect x="205.01" y="379.53" width="21.32" height="38.26" rx="1" ry="1" transform="translate(-255.69 425.1) rotate(-66.46)" fill="#e6e6e6"/>
                    <rect x="104.67" y="412.61" width="159.27" height="116.04" rx="1" ry="1" transform="translate(-340.51 439.56) rotate(-66.45)" fill="#402206"/>
                  </g>
                  <path d="M123,432.48c11.39-16.06,17.52-24.82,23.37-22.49s38.26,24.83,37.09,30.38-18.69,24.82-22.78,25.7-24-16.36-26-13.44S126.22,465.8,121,466.36c-8.18.88-15.48-7.89-14-9.93S123,432.48,123,432.48Z" transform="translate(-19.75 -12.02)" fill="#a56b32"/>
                  <path d="M142,420.41c0-.09.18-.11.5-.06a4.42,4.42,0,0,1,1.32.43,31.93,31.93,0,0,1,4.26,2.39c3.45,2.21,8,5.53,12.87,9.39,9.72,7.72,17.11,14.57,16.68,15.11s-8.57-5.41-18.27-13.11L147,424.64c-1.57-1.27-2.83-2.32-3.71-3-.44-.38-.76-.63-1-.8S142,420.5,142,420.41Z" transform="translate(-19.75 -12.02)" fill="#7a431c"/>
                  <path d="M172.87,455.55c-.4.58-8.9-4.71-19-11.8s-17.93-13.32-17.52-13.9,8.91,4.71,19,11.81S173.28,455,172.87,455.55Z" transform="translate(-19.75 -12.02)" fill="#7a431c"/>
                  <path d="M132.67,440.08c.37-.61,8.05,3.42,17.17,9s16.2,10.56,15.83,11.17-8-3.42-17.17-9S132.3,440.68,132.67,440.08Z" transform="translate(-19.75 -12.02)" fill="#7a431c"/>
                  <path d="M62.58,381.24c.06.34-3.22,1.34-8.69,2.29a47,47,0,0,1-9.85.81,9,9,0,0,1-1.55-.22,4.58,4.58,0,0,1-1-.37l-.55-.38a4,4,0,0,1-.43-.49,2.17,2.17,0,0,1,.12-2.41,9.47,9.47,0,0,1,.64-.92l.65-.58a18.35,18.35,0,0,1,5.83-3,48.69,48.69,0,0,1,21.76-1.66c5.55.87,8.72,2.37,8.62,2.64s-3.42-.46-8.82-.85a56.57,56.57,0,0,0-20.73,2.29,17.39,17.39,0,0,0-5,2.5l-.46.39-.2.26-.1.13s0,0,0,0,0,0,.31.12a6.77,6.77,0,0,0,1.17.21,60.43,60.43,0,0,0,9.42-.26C59.12,381.26,62.51,380.88,62.58,381.24Z" transform="translate(-19.75 -12.02)" fill="#706670"/>
                  <path d="M132.67,334.35c-.1-.21.77-.66,1.94-1.85a19.07,19.07,0,0,0,3.74-6c2.38-5.57,3.91-14,4.53-23.41a178.36,178.36,0,0,0-.07-24.14c-.41-6.17-1.15-9.93-.8-10s1.71,3.6,2.59,9.84a119.55,119.55,0,0,1,.83,24.5c-.63,9.57-2.48,18.27-5.45,24a16.35,16.35,0,0,1-4.73,6,6.45,6.45,0,0,1-1.85,1C133,334.39,132.71,334.43,132.67,334.35Z" transform="translate(-19.75 -12.02)" fill="#706670"/>
                </g>
                <path d="M461.26,297.5c5.37-9.16,17.53-18.9,24.27-24.37,4.91-4,16.88-14.77,28-26.06s8.82-18.71,4.88-25.74c-3.44-6.12-10.06-18.36-23.42-17-2.47,1.95-23.92,47.72-26.81,44.32s8.21-22.17,6.41-25.08c-2.07-6.1-5.56-4.95-6.43-3.4-4.77,8.5-12.31,22.65-16.42,30.2s2.91,8.81-.11,15-11.88,17.4-11.88,17.4" transform="translate(-19.75 -12.02)" fill="#a56b32"/>
                <path d="M449,270.08c-3.79,5.83-8.92,12.32-8.92,12.32l21.49,14.74a58.62,58.62,0,0,1,9.36-11.39A102.54,102.54,0,0,1,449,270.08Z" transform="translate(-19.75 -12.02)" fill="#7b4218"/>
                <path d="M466.4,304.91c-3.91-17.49-28.1-33.6-28.1-33.6-30.76,20.75-98.72,94.19-98,133.66,10.76,12.29,19.06,19.18,36.4,15.86C393.71,417.58,414.55,379.69,466.4,304.91Z" transform="translate(-19.75 -12.02)" fill="#7d7d91"/>
                <path d="M367.59,345.16c.34.25-1,2.34-2.36,6.06a40.07,40.07,0,0,0-1.7,6.69,53.38,53.38,0,0,0-.58,8.46,62,62,0,0,0,.8,8.46,55.93,55.93,0,0,0,1.65,6.76c1.18,3.8,2.31,6,2,6.24s-2-1.79-3.66-5.61a39.13,39.13,0,0,1-2.27-6.93,49,49,0,0,1-1.05-8.88,43.24,43.24,0,0,1,.83-8.93,31,31,0,0,1,2.34-7C365.41,346.74,367.38,345,367.59,345.16Z" transform="translate(-19.75 -12.02)" fill="#706670"/>
              </g>
            </g>
            <g>
              <path d="M518.86,223.56c-.18-.06-.47.29-1.21.87l-3,2.53c-2.53,2.16-6,5.15-9.83,8.51-7.63,6.72-13.61,12.45-13.19,12.93s7-4.49,14.68-11.23c3.83-3.37,7.17-6.58,9.45-9.06a24.65,24.65,0,0,0,2.54-3.11C518.87,224.22,519,223.59,518.86,223.56Z" transform="translate(-19.75 -12.02)" fill="#7a431c"/>
              <path d="M514.76,215.36c-.07,0-.21.07-.4.26s-.41.46-.77.82c-.66.72-1.68,1.76-2.91,3.06l-9.62,10.19c-7.46,8-13.29,14.76-12.83,15.2s7-5.61,14.49-13.66c3.74-4,7-7.8,9.18-10.7a28.29,28.29,0,0,0,2.41-3.59,4.19,4.19,0,0,0,.47-1.13C514.84,215.53,514.84,215.38,514.76,215.36Z" transform="translate(-19.75 -12.02)" fill="#7a431c"/>
              <path d="M507.68,207c-.07,0-.2.09-.36.3s-.35.51-.67.91c-.57.8-1.44,2-2.5,3.4l-8.28,11.31c-6.42,8.88-11.36,16.29-10.85,16.67s6.25-6.44,12.68-15.35c3.22-4.46,6-8.61,7.79-11.76a27.57,27.57,0,0,0,1.94-3.86,3.75,3.75,0,0,0,.32-1.18C507.78,207.13,507.76,207,507.68,207Z" transform="translate(-19.75 -12.02)" fill="#7a431c"/>
            </g>
          </g>
          <g>
            <g>
              <path d="M423.37,177A18.94,18.94,0,0,1,407,167.52l-32-55.47a18.9,18.9,0,0,1,0-18.86l32-55.48a18.9,18.9,0,0,1,16.33-9.44H487.4a18.91,18.91,0,0,1,16.33,9.43l32,55.47a18.93,18.93,0,0,1,0,18.86l-32,55.48a18.91,18.91,0,0,1-16.33,9.43l-64.06,0Z" transform="translate(-19.75 -12.02)" fill="#7f2b8a" stroke="#fff" stroke-miterlimit="10"/>
              <path d="M487.4,30.26A16.85,16.85,0,0,1,502,38.69l32,55.47A16.87,16.87,0,0,1,534,111L502,166.5a16.85,16.85,0,0,1-14.6,8.43l-64.06,0h0a16.89,16.89,0,0,1-14.61-8.43l-32-55.47a16.84,16.84,0,0,1,0-16.86l32-55.48a16.86,16.86,0,0,1,14.6-8.44H487.4m0-4H423.34a20.93,20.93,0,0,0-18.07,10.44l-32,55.48a20.91,20.91,0,0,0,0,20.86l32,55.47A20.94,20.94,0,0,0,423.37,179l64.06,0a20.91,20.91,0,0,0,18.06-10.43l32-55.48a20.94,20.94,0,0,0,0-20.86L505.46,36.69A20.89,20.89,0,0,0,487.4,26.26Z" transform="translate(-19.75 -12.02)" fill="#fff" stroke="#fff" stroke-miterlimit="10"/>
            </g>
            <path d="M502,166l32-55.47a16.82,16.82,0,0,0,0-16.86L502,39.15a16.84,16.84,0,0,0-14.6-8.43h-32V174.39h32A16.84,16.84,0,0,0,502,166Z" transform="translate(-19.75 -12.02)" fill="#5b318c"/>
            <path d="M536.26,100.93,494.2,69.65C475.11,80.1,464.85,99,455.38,118.26v44.93l11.35,11.2h20.68A16.84,16.84,0,0,0,502,166l32-55.47A16.87,16.87,0,0,0,536.26,100.93Z" transform="translate(-19.75 -12.02)" opacity="0.15" style="mix-blend-mode: multiply"/>
            <path d="M410.54,105.24c6.69,4.63,10.18,5.47,15.94,15.17s6.77,16.3,8.29,17.51,9.09-.3,13-2.42,4.09-3.3,7.77-11.9C460.67,111.67,469,97,475.33,88.53S495.1,68.88,495.7,66.76s-5.76-3.11-11.82-1.29S465,81.33,457.33,92.39c-8.57,12.28-11.61,22.64-13.13,22.34s-4.48-6.48-8.72-11-8.72-7.63-13.87-6.72S407.46,103.11,410.54,105.24Z" transform="translate(-19.75 -12.02)" fill="#fff"/>
          </g>
        </g>
      </g>
    </g>
  </g>
</svg>
